<?xml version="1.0" encoding="UTF-8" standalone="no"?>
<svg
        xmlns:dc="http://purl.org/dc/elements/1.1/"
        xmlns:cc="http://creativecommons.org/ns#"
        xmlns:rdf="http://www.w3.org/1999/02/22-rdf-syntax-ns#"
        xmlns:svg="http://www.w3.org/2000/svg"
        xmlns="http://www.w3.org/2000/svg"
        xmlns:sodipodi="http://sodipodi.sourceforge.net/DTD/sodipodi-0.dtd"
        xmlns:inkscape="http://www.inkscape.org/namespaces/inkscape"
        viewBox="0 0 64 64"
        version="1.1"
        id="svg39"
        sodipodi:docname="scala-icon.svg"
        width="64"
        height="64"
        inkscape:version="0.92.2 (5c3e80d, 2017-08-06)">
    <metadata
            id="metadata45">
        <rdf:RDF>
            <cc:Work
                    rdf:about="">
                <dc:format>image/svg+xml</dc:format>
                <dc:type
                        rdf:resource="http://purl.org/dc/dcmitype/StillImage"/>
                <dc:title></dc:title>
            </cc:Work>
        </rdf:RDF>
    </metadata>
    <defs
            id="defs43"/>
    <sodipodi:namedview
            pagecolor="#ffffff"
            bordercolor="#666666"
            borderopacity="1"
            objecttolerance="10"
            gridtolerance="10"
            guidetolerance="10"
            inkscape:pageopacity="0"
            inkscape:pageshadow="2"
            inkscape:window-width="1920"
            inkscape:window-height="1001"
            id="namedview41"
            showgrid="false"
            inkscape:zoom="2.9098712"
            inkscape:cx="44.223901"
            inkscape:cy="62.8431"
            inkscape:window-x="-9"
            inkscape:window-y="-9"
            inkscape:window-maximized="1"
            inkscape:current-layer="svg39"/>
    <linearGradient
            id="a"
            gradientUnits="userSpaceOnUse"
            x1="0.80400002"
            y1="792.24402"
            x2="0.977"
            y2="792.24402"
            gradientTransform="matrix(432,0,0,460.8,-333.8,-365102.22)">
        <stop
                offset="0"
                stop-color="#656565"
                id="stop2"/>
        <stop
                offset="1"
                stop-color="#010101"
                id="stop4"/>
    </linearGradient>
    <linearGradient
            id="b"
            gradientUnits="userSpaceOnUse"
            x1="0.80400002"
            y1="791.83099"
            x2="0.977"
            y2="791.83099"
            gradientTransform="matrix(432,0,0,460.8,-333.8,-364871.81)">
        <stop
                offset="0"
                stop-color="#656565"
                id="stop9"/>
        <stop
                offset="1"
                stop-color="#010101"
                id="stop11"/>
    </linearGradient>
    <linearGradient
            id="c"
            gradientUnits="userSpaceOnUse"
            x1="0.80400002"
            y1="792.92401"
            x2="0.977"
            y2="792.92401"
            gradientTransform="matrix(432,0,0,-460.8,-333.8,365323.41)">
        <stop
                offset="0"
                stop-color="#9f1c20"
                id="stop16"/>
        <stop
                offset="1"
                stop-color="#ed2224"
                id="stop18"/>
    </linearGradient>
    <linearGradient
            id="d"
            gradientUnits="userSpaceOnUse"
            x1="0.80400002"
            y1="793.33698"
            x2="0.977"
            y2="793.33698"
            gradientTransform="matrix(432,0,0,-460.8,-333.8,365553.81)">
        <stop
                offset="0"
                stop-color="#9f1c20"
                id="stop23"/>
        <stop
                offset="1"
                stop-color="#ed2224"
                id="stop25"/>
    </linearGradient>
    <linearGradient
            id="e"
            gradientUnits="userSpaceOnUse"
            x1="0.80400002"
            y1="793.75"
            x2="0.977"
            y2="793.75"
            gradientTransform="matrix(432,0,0,-460.8,-333.8,365784.22)">
        <stop
                offset="0"
                stop-color="#9f1c20"
                id="stop30"/>
        <stop
                offset="1"
                stop-color="#ed2224"
                id="stop32"/>
    </linearGradient>
    <g
            id="g857"
            transform="matrix(0.49230769,0,0,0.49230769,6.9415386,39.876923)">
        <path
                style="fill:url(#a)"
                inkscape:connector-curvature="0"
                id="path7"
                d="m 13.4,-31 c 0,0 75,7.5 75,20 v -30 c 0,0 0,-12.5 -75,-20 z"/>
        <path
                style="fill:url(#b)"
                inkscape:connector-curvature="0"
                id="path14"
                d="m 13.4,9 c 0,0 75,7.5 75,20 V -1 c 0,0 0,-12.5 -75,-20 z"/>
        <path
                style="fill:url(#c)"
                inkscape:connector-curvature="0"
                id="path21"
                d="m 88.4,-81 v 30 c 0,0 0,12.5 -75,20 v -30 c 0,0 75,-7.5 75,-20"/>
        <path
                style="fill:url(#d)"
                inkscape:connector-curvature="0"
                id="path28"
                d="m 13.4,-21 c 0,0 75,-7.5 75,-20 v 30 c 0,0 0,12.5 -75,20 z"/>
        <path
                style="fill:url(#e)"
                inkscape:connector-curvature="0"
                id="path35"
                d="M 13.4,49 V 19 c 0,0 75,-7.5 75,-20 v 30 c 0,0 0,12.5 -75,20"/>
    </g>
</svg>
